<?xml version="1.0" encoding="utf-8"?>
<TestRecord xmlns:xsi="http://www.w3.org/2001/XMLSchema-instance" xmlns:xsd="http://www.w3.org/2001/XMLSchema">
  <Results>
    <UnitTestResult>
      <TestDate>2015-06-28T17:37:51</TestDate>
      <Status />
      <Passed>1</Passed>
      <Errors>0</Errors>
      <Failures>0</Failures>
      <Inconclusive>0</Inconclusive>
      <NotRunnable>0</NotRunnable>
      <Skipped>0</Skipped>
      <Ignored>0</Ignored>
      <Time />
      <Message>Test successful

Execution time: 0.04ms</Message>
    </UnitTestResult>
    <UnitTestResult>
      <TestDate>2015-06-28T17:44:48</TestDate>
      <Status />
      <Passed>1</Passed>
      <Errors>0</Errors>
      <Failures>0</Failures>
      <Inconclusive>0</Inconclusive>
      <NotRunnable>0</NotRunnable>
      <Skipped>0</Skipped>
      <Ignored>0</Ignored>
      <Time />
      <Message>Test successful

Execution time: 0.25ms</Message>
    </UnitTestResult>
    <UnitTestResult>
      <TestDate>2015-06-28T17:44:56</TestDate>
      <Status />
      <Passed>1</Passed>
      <Errors>0</Errors>
      <Failures>0</Failures>
      <Inconclusive>0</Inconclusive>
      <NotRunnable>0</NotRunnable>
      <Skipped>0</Skipped>
      <Ignored>0</Ignored>
      <Time />
      <Message>Test successful

Execution time: 0.17ms</Message>
    </UnitTestResult>
    <UnitTestResult>
      <TestDate>2015-06-28T17:45:17</TestDate>
      <Status />
      <Passed>1</Passed>
      <Errors>0</Errors>
      <Failures>0</Failures>
      <Inconclusive>0</Inconclusive>
      <NotRunnable>0</NotRunnable>
      <Skipped>0</Skipped>
      <Ignored>0</Ignored>
      <Time />
      <Message>Test successful

Execution time: 0.17ms</Message>
    </UnitTestResult>
    <UnitTestResult>
      <TestDate>2015-06-28T17:45:42</TestDate>
      <Status />
      <Passed>1</Passed>
      <Errors>0</Errors>
      <Failures>0</Failures>
      <Inconclusive>0</Inconclusive>
      <NotRunnable>0</NotRunnable>
      <Skipped>0</Skipped>
      <Ignored>0</Ignored>
      <Time />
      <Message>Test successful

Execution time: 0.18ms</Message>
    </UnitTestResult>
    <UnitTestResult>
      <TestDate>2015-06-28T17:46:05</TestDate>
      <Status />
      <Passed>1</Passed>
      <Errors>0</Errors>
      <Failures>0</Failures>
      <Inconclusive>0</Inconclusive>
      <NotRunnable>0</NotRunnable>
      <Skipped>0</Skipped>
      <Ignored>0</Ignored>
      <Time />
      <Message>Test successful

Execution time: 0.19ms</Message>
    </UnitTestResult>
    <UnitTestResult>
      <TestDate>2015-06-28T17:52:25</TestDate>
      <Status />
      <Passed>1</Passed>
      <Errors>0</Errors>
      <Failures>0</Failures>
      <Inconclusive>0</Inconclusive>
      <NotRunnable>0</NotRunnable>
      <Skipped>0</Skipped>
      <Ignored>0</Ignored>
      <Time />
      <Message>Test successful

Execution time: 0.18ms</Message>
    </UnitTestResult>
    <UnitTestResult>
      <TestDate>2015-06-28T17:53:34</TestDate>
      <Status />
      <Passed>0</Passed>
      <Errors>0</Errors>
      <Failures>1</Failures>
      <Inconclusive>0</Inconclusive>
      <NotRunnable>0</NotRunnable>
      <Skipped>0</Skipped>
      <Ignored>0</Ignored>
      <Time />
      <Message>One or more child tests had errors</Message>
    </UnitTestResult>
    <UnitTestResult>
      <TestDate>2015-06-28T17:55:24</TestDate>
      <Status />
      <Passed>0</Passed>
      <Errors>0</Errors>
      <Failures>1</Failures>
      <Inconclusive>0</Inconclusive>
      <NotRunnable>0</NotRunnable>
      <Skipped>0</Skipped>
      <Ignored>0</Ignored>
      <Time />
      <Message>One or more child tests had errors</Message>
    </UnitTestResult>
    <UnitTestResult>
      <TestDate>2015-06-28T17:56:43</TestDate>
      <Status />
      <Passed>0</Passed>
      <Errors>0</Errors>
      <Failures>1</Failures>
      <Inconclusive>0</Inconclusive>
      <NotRunnable>0</NotRunnable>
      <Skipped>0</Skipped>
      <Ignored>0</Ignored>
      <Time />
      <Message>One or more child tests had errors</Message>
    </UnitTestResult>
    <UnitTestResult>
      <TestDate>2015-06-28T17:57:08</TestDate>
      <Status />
      <Passed>0</Passed>
      <Errors>0</Errors>
      <Failures>1</Failures>
      <Inconclusive>0</Inconclusive>
      <NotRunnable>0</NotRunnable>
      <Skipped>0</Skipped>
      <Ignored>0</Ignored>
      <Time />
      <Message>One or more child tests had errors</Message>
    </UnitTestResult>
    <UnitTestResult>
      <TestDate>2015-06-28T17:57:56</TestDate>
      <Status />
      <Passed>0</Passed>
      <Errors>0</Errors>
      <Failures>1</Failures>
      <Inconclusive>0</Inconclusive>
      <NotRunnable>0</NotRunnable>
      <Skipped>0</Skipped>
      <Ignored>0</Ignored>
      <Time />
      <Message>One or more child tests had errors</Message>
    </UnitTestResult>
    <UnitTestResult>
      <TestDate>2015-06-28T17:59:04</TestDate>
      <Status />
      <Passed>1</Passed>
      <Errors>0</Errors>
      <Failures>0</Failures>
      <Inconclusive>0</Inconclusive>
      <NotRunnable>0</NotRunnable>
      <Skipped>0</Skipped>
      <Ignored>0</Ignored>
      <Time />
      <Message>Test successful

Execution time: 0.62ms</Message>
    </UnitTestResult>
    <UnitTestResult>
      <TestDate>2015-06-28T18:00:12</TestDate>
      <Status />
      <Passed>1</Passed>
      <Errors>0</Errors>
      <Failures>0</Failures>
      <Inconclusive>0</Inconclusive>
      <NotRunnable>0</NotRunnable>
      <Skipped>0</Skipped>
      <Ignored>0</Ignored>
      <Time />
      <Message>Test successful

Execution time: 0.87ms</Message>
    </UnitTestResult>
    <UnitTestResult>
      <TestDate>2015-06-28T18:02:37</TestDate>
      <Status />
      <Passed>1</Passed>
      <Errors>0</Errors>
      <Failures>0</Failures>
      <Inconclusive>0</Inconclusive>
      <NotRunnable>0</NotRunnable>
      <Skipped>0</Skipped>
      <Ignored>0</Ignored>
      <Time />
      <Message>Test successful

Execution time: 0.91ms</Message>
    </UnitTestResult>
    <UnitTestResult>
      <TestDate>2015-06-28T18:03:28</TestDate>
      <Status />
      <Passed>1</Passed>
      <Errors>0</Errors>
      <Failures>0</Failures>
      <Inconclusive>0</Inconclusive>
      <NotRunnable>0</NotRunnable>
      <Skipped>0</Skipped>
      <Ignored>0</Ignored>
      <Time />
      <Message>Test successful

Execution time: 0.95ms</Message>
    </UnitTestResult>
    <UnitTestResult>
      <TestDate>2015-06-28T18:03:58</TestDate>
      <Status />
      <Passed>1</Passed>
      <Errors>0</Errors>
      <Failures>0</Failures>
      <Inconclusive>0</Inconclusive>
      <NotRunnable>0</NotRunnable>
      <Skipped>0</Skipped>
      <Ignored>0</Ignored>
      <Time />
      <Message>Test successful

Execution time: 0.85ms</Message>
    </UnitTestResult>
    <UnitTestResult>
      <TestDate>2015-06-28T18:04:18</TestDate>
      <Status />
      <Passed>0</Passed>
      <Errors>0</Errors>
      <Failures>1</Failures>
      <Inconclusive>0</Inconclusive>
      <NotRunnable>0</NotRunnable>
      <Skipped>0</Skipped>
      <Ignored>0</Ignored>
      <Time />
      <Message>One or more child tests had errors</Message>
    </UnitTestResult>
    <UnitTestResult>
      <TestDate>2015-06-28T18:04:56</TestDate>
      <Status />
      <Passed>0</Passed>
      <Errors>0</Errors>
      <Failures>1</Failures>
      <Inconclusive>0</Inconclusive>
      <NotRunnable>0</NotRunnable>
      <Skipped>0</Skipped>
      <Ignored>0</Ignored>
      <Time />
      <Message>One or more child tests had errors</Message>
    </UnitTestResult>
    <UnitTestResult>
      <TestDate>2015-06-28T18:05:12</TestDate>
      <Status />
      <Passed>0</Passed>
      <Errors>0</Errors>
      <Failures>1</Failures>
      <Inconclusive>0</Inconclusive>
      <NotRunnable>0</NotRunnable>
      <Skipped>0</Skipped>
      <Ignored>0</Ignored>
      <Time />
      <Message>One or more child tests had errors</Message>
    </UnitTestResult>
    <UnitTestResult>
      <TestDate>2015-06-28T18:05:46</TestDate>
      <Status />
      <Passed>0</Passed>
      <Errors>0</Errors>
      <Failures>1</Failures>
      <Inconclusive>0</Inconclusive>
      <NotRunnable>0</NotRunnable>
      <Skipped>0</Skipped>
      <Ignored>0</Ignored>
      <Time />
      <Message>One or more child tests had errors</Message>
    </UnitTestResult>
    <UnitTestResult>
      <TestDate>2015-06-28T18:06:04</TestDate>
      <Status />
      <Passed>0</Passed>
      <Errors>0</Errors>
      <Failures>1</Failures>
      <Inconclusive>0</Inconclusive>
      <NotRunnable>0</NotRunnable>
      <Skipped>0</Skipped>
      <Ignored>0</Ignored>
      <Time />
      <Message>One or more child tests had errors</Message>
    </UnitTestResult>
    <UnitTestResult>
      <TestDate>2015-06-28T18:06:07</TestDate>
      <Status />
      <Passed>0</Passed>
      <Errors>0</Errors>
      <Failures>1</Failures>
      <Inconclusive>0</Inconclusive>
      <NotRunnable>0</NotRunnable>
      <Skipped>0</Skipped>
      <Ignored>0</Ignored>
      <Time />
      <Message>One or more child tests had errors</Message>
    </UnitTestResult>
    <UnitTestResult>
      <TestDate>2015-06-28T18:06:49</TestDate>
      <Status />
      <Passed>0</Passed>
      <Errors>0</Errors>
      <Failures>1</Failures>
      <Inconclusive>0</Inconclusive>
      <NotRunnable>0</NotRunnable>
      <Skipped>0</Skipped>
      <Ignored>0</Ignored>
      <Time />
      <Message>One or more child tests had errors</Message>
    </UnitTestResult>
  </Results>
  <Tests>
    <TestRecord Name="netDb">
      <Results>
        <UnitTestResult>
          <TestDate>2015-06-28T17:37:51</TestDate>
          <Status />
          <Passed>1</Passed>
          <Errors>0</Errors>
          <Failures>0</Failures>
          <Inconclusive>0</Inconclusive>
          <NotRunnable>0</NotRunnable>
          <Skipped>0</Skipped>
          <Ignored>0</Ignored>
          <Time />
          <Message>Test successful

Execution time: 0.03ms</Message>
        </UnitTestResult>
        <UnitTestResult>
          <TestDate>2015-06-28T17:44:48</TestDate>
          <Status />
          <Passed>1</Passed>
          <Errors>0</Errors>
          <Failures>0</Failures>
          <Inconclusive>0</Inconclusive>
          <NotRunnable>0</NotRunnable>
          <Skipped>0</Skipped>
          <Ignored>0</Ignored>
          <Time />
          <Message>Test successful

Execution time: 0.24ms</Message>
        </UnitTestResult>
        <UnitTestResult>
          <TestDate>2015-06-28T17:44:56</TestDate>
          <Status />
          <Passed>1</Passed>
          <Errors>0</Errors>
          <Failures>0</Failures>
          <Inconclusive>0</Inconclusive>
          <NotRunnable>0</NotRunnable>
          <Skipped>0</Skipped>
          <Ignored>0</Ignored>
          <Time />
          <Message>Test successful

Execution time: 0.17ms</Message>
        </UnitTestResult>
        <UnitTestResult>
          <TestDate>2015-06-28T17:45:17</TestDate>
          <Status />
          <Passed>1</Passed>
          <Errors>0</Errors>
          <Failures>0</Failures>
          <Inconclusive>0</Inconclusive>
          <NotRunnable>0</NotRunnable>
          <Skipped>0</Skipped>
          <Ignored>0</Ignored>
          <Time />
          <Message>Test successful

Execution time: 0.17ms</Message>
        </UnitTestResult>
        <UnitTestResult>
          <TestDate>2015-06-28T17:45:42</TestDate>
          <Status />
          <Passed>1</Passed>
          <Errors>0</Errors>
          <Failures>0</Failures>
          <Inconclusive>0</Inconclusive>
          <NotRunnable>0</NotRunnable>
          <Skipped>0</Skipped>
          <Ignored>0</Ignored>
          <Time />
          <Message>Test successful

Execution time: 0.17ms</Message>
        </UnitTestResult>
        <UnitTestResult>
          <TestDate>2015-06-28T17:46:05</TestDate>
          <Status />
          <Passed>1</Passed>
          <Errors>0</Errors>
          <Failures>0</Failures>
          <Inconclusive>0</Inconclusive>
          <NotRunnable>0</NotRunnable>
          <Skipped>0</Skipped>
          <Ignored>0</Ignored>
          <Time />
          <Message>Test successful

Execution time: 0.17ms</Message>
        </UnitTestResult>
        <UnitTestResult>
          <TestDate>2015-06-28T17:52:25</TestDate>
          <Status />
          <Passed>1</Passed>
          <Errors>0</Errors>
          <Failures>0</Failures>
          <Inconclusive>0</Inconclusive>
          <NotRunnable>0</NotRunnable>
          <Skipped>0</Skipped>
          <Ignored>0</Ignored>
          <Time />
          <Message>Test successful

Execution time: 0.17ms</Message>
        </UnitTestResult>
        <UnitTestResult>
          <TestDate>2015-06-28T17:53:34</TestDate>
          <Status />
          <Passed>0</Passed>
          <Errors>0</Errors>
          <Failures>1</Failures>
          <Inconclusive>0</Inconclusive>
          <NotRunnable>0</NotRunnable>
          <Skipped>0</Skipped>
          <Ignored>0</Ignored>
          <Time />
          <Message>One or more child tests had errors</Message>
        </UnitTestResult>
        <UnitTestResult>
          <TestDate>2015-06-28T17:55:24</TestDate>
          <Status />
          <Passed>0</Passed>
          <Errors>0</Errors>
          <Failures>1</Failures>
          <Inconclusive>0</Inconclusive>
          <NotRunnable>0</NotRunnable>
          <Skipped>0</Skipped>
          <Ignored>0</Ignored>
          <Time />
          <Message>One or more child tests had errors</Message>
        </UnitTestResult>
        <UnitTestResult>
          <TestDate>2015-06-28T17:56:43</TestDate>
          <Status />
          <Passed>0</Passed>
          <Errors>0</Errors>
          <Failures>1</Failures>
          <Inconclusive>0</Inconclusive>
          <NotRunnable>0</NotRunnable>
          <Skipped>0</Skipped>
          <Ignored>0</Ignored>
          <Time />
          <Message>One or more child tests had errors</Message>
        </UnitTestResult>
        <UnitTestResult>
          <TestDate>2015-06-28T17:57:08</TestDate>
          <Status />
          <Passed>0</Passed>
          <Errors>0</Errors>
          <Failures>1</Failures>
          <Inconclusive>0</Inconclusive>
          <NotRunnable>0</NotRunnable>
          <Skipped>0</Skipped>
          <Ignored>0</Ignored>
          <Time />
          <Message>One or more child tests had errors</Message>
        </UnitTestResult>
        <UnitTestResult>
          <TestDate>2015-06-28T17:57:56</TestDate>
          <Status />
          <Passed>0</Passed>
          <Errors>0</Errors>
          <Failures>1</Failures>
          <Inconclusive>0</Inconclusive>
          <NotRunnable>0</NotRunnable>
          <Skipped>0</Skipped>
          <Ignored>0</Ignored>
          <Time />
          <Message>One or more child tests had errors</Message>
        </UnitTestResult>
        <UnitTestResult>
          <TestDate>2015-06-28T17:59:04</TestDate>
          <Status />
          <Passed>1</Passed>
          <Errors>0</Errors>
          <Failures>0</Failures>
          <Inconclusive>0</Inconclusive>
          <NotRunnable>0</NotRunnable>
          <Skipped>0</Skipped>
          <Ignored>0</Ignored>
          <Time />
          <Message>Test successful

Execution time: 0.60ms</Message>
        </UnitTestResult>
        <UnitTestResult>
          <TestDate>2015-06-28T18:00:12</TestDate>
          <Status />
          <Passed>1</Passed>
          <Errors>0</Errors>
          <Failures>0</Failures>
          <Inconclusive>0</Inconclusive>
          <NotRunnable>0</NotRunnable>
          <Skipped>0</Skipped>
          <Ignored>0</Ignored>
          <Time />
          <Message>Test successful

Execution time: 0.86ms</Message>
        </UnitTestResult>
        <UnitTestResult>
          <TestDate>2015-06-28T18:02:37</TestDate>
          <Status />
          <Passed>1</Passed>
          <Errors>0</Errors>
          <Failures>0</Failures>
          <Inconclusive>0</Inconclusive>
          <NotRunnable>0</NotRunnable>
          <Skipped>0</Skipped>
          <Ignored>0</Ignored>
          <Time />
          <Message>Test successful

Execution time: 0.90ms</Message>
        </UnitTestResult>
        <UnitTestResult>
          <TestDate>2015-06-28T18:03:28</TestDate>
          <Status />
          <Passed>1</Passed>
          <Errors>0</Errors>
          <Failures>0</Failures>
          <Inconclusive>0</Inconclusive>
          <NotRunnable>0</NotRunnable>
          <Skipped>0</Skipped>
          <Ignored>0</Ignored>
          <Time />
          <Message>Test successful

Execution time: 0.94ms</Message>
        </UnitTestResult>
        <UnitTestResult>
          <TestDate>2015-06-28T18:03:58</TestDate>
          <Status />
          <Passed>1</Passed>
          <Errors>0</Errors>
          <Failures>0</Failures>
          <Inconclusive>0</Inconclusive>
          <NotRunnable>0</NotRunnable>
          <Skipped>0</Skipped>
          <Ignored>0</Ignored>
          <Time />
          <Message>Test successful

Execution time: 0.84ms</Message>
        </UnitTestResult>
        <UnitTestResult>
          <TestDate>2015-06-28T18:04:18</TestDate>
          <Status />
          <Passed>0</Passed>
          <Errors>0</Errors>
          <Failures>1</Failures>
          <Inconclusive>0</Inconclusive>
          <NotRunnable>0</NotRunnable>
          <Skipped>0</Skipped>
          <Ignored>0</Ignored>
          <Time />
          <Message>One or more child tests had errors</Message>
        </UnitTestResult>
        <UnitTestResult>
          <TestDate>2015-06-28T18:04:56</TestDate>
          <Status />
          <Passed>0</Passed>
          <Errors>0</Errors>
          <Failures>1</Failures>
          <Inconclusive>0</Inconclusive>
          <NotRunnable>0</NotRunnable>
          <Skipped>0</Skipped>
          <Ignored>0</Ignored>
          <Time />
          <Message>One or more child tests had errors</Message>
        </UnitTestResult>
        <UnitTestResult>
          <TestDate>2015-06-28T18:05:12</TestDate>
          <Status />
          <Passed>0</Passed>
          <Errors>0</Errors>
          <Failures>1</Failures>
          <Inconclusive>0</Inconclusive>
          <NotRunnable>0</NotRunnable>
          <Skipped>0</Skipped>
          <Ignored>0</Ignored>
          <Time />
          <Message>One or more child tests had errors</Message>
        </UnitTestResult>
        <UnitTestResult>
          <TestDate>2015-06-28T18:05:46</TestDate>
          <Status />
          <Passed>0</Passed>
          <Errors>0</Errors>
          <Failures>1</Failures>
          <Inconclusive>0</Inconclusive>
          <NotRunnable>0</NotRunnable>
          <Skipped>0</Skipped>
          <Ignored>0</Ignored>
          <Time />
          <Message>One or more child tests had errors</Message>
        </UnitTestResult>
        <UnitTestResult>
          <TestDate>2015-06-28T18:06:04</TestDate>
          <Status />
          <Passed>0</Passed>
          <Errors>0</Errors>
          <Failures>1</Failures>
          <Inconclusive>0</Inconclusive>
          <NotRunnable>0</NotRunnable>
          <Skipped>0</Skipped>
          <Ignored>0</Ignored>
          <Time />
          <Message>One or more child tests had errors</Message>
        </UnitTestResult>
        <UnitTestResult>
          <TestDate>2015-06-28T18:06:07</TestDate>
          <Status />
          <Passed>0</Passed>
          <Errors>0</Errors>
          <Failures>1</Failures>
          <Inconclusive>0</Inconclusive>
          <NotRunnable>0</NotRunnable>
          <Skipped>0</Skipped>
          <Ignored>0</Ignored>
          <Time />
          <Message>One or more child tests had errors</Message>
        </UnitTestResult>
        <UnitTestResult>
          <TestDate>2015-06-28T18:06:49</TestDate>
          <Status />
          <Passed>0</Passed>
          <Errors>0</Errors>
          <Failures>1</Failures>
          <Inconclusive>0</Inconclusive>
          <NotRunnable>0</NotRunnable>
          <Skipped>0</Skipped>
          <Ignored>0</Ignored>
          <Time />
          <Message>One or more child tests had errors</Message>
        </UnitTestResult>
      </Results>
      <Tests>
        <TestRecord Name="netDbTest">
          <Results>
            <UnitTestResult>
              <TestDate>2015-06-28T17:37:51</TestDate>
              <Status />
              <Passed>1</Passed>
              <Errors>0</Errors>
              <Failures>0</Failures>
              <Inconclusive>0</Inconclusive>
              <NotRunnable>0</NotRunnable>
              <Skipped>0</Skipped>
              <Ignored>0</Ignored>
              <Time />
              <Message>Test successful

Execution time: 0.03ms</Message>
            </UnitTestResult>
            <UnitTestResult>
              <TestDate>2015-06-28T17:44:48</TestDate>
              <Status />
              <Passed>1</Passed>
              <Errors>0</Errors>
              <Failures>0</Failures>
              <Inconclusive>0</Inconclusive>
              <NotRunnable>0</NotRunnable>
              <Skipped>0</Skipped>
              <Ignored>0</Ignored>
              <Time />
              <Message>Test successful

Execution time: 0.24ms</Message>
            </UnitTestResult>
            <UnitTestResult>
              <TestDate>2015-06-28T17:44:56</TestDate>
              <Status />
              <Passed>1</Passed>
              <Errors>0</Errors>
              <Failures>0</Failures>
              <Inconclusive>0</Inconclusive>
              <NotRunnable>0</NotRunnable>
              <Skipped>0</Skipped>
              <Ignored>0</Ignored>
              <Time />
              <Message>Test successful

Execution time: 0.16ms</Message>
            </UnitTestResult>
            <UnitTestResult>
              <TestDate>2015-06-28T17:45:17</TestDate>
              <Status />
              <Passed>1</Passed>
              <Errors>0</Errors>
              <Failures>0</Failures>
              <Inconclusive>0</Inconclusive>
              <NotRunnable>0</NotRunnable>
              <Skipped>0</Skipped>
              <Ignored>0</Ignored>
              <Time />
              <Message>Test successful

Execution time: 0.16ms</Message>
            </UnitTestResult>
            <UnitTestResult>
              <TestDate>2015-06-28T17:45:42</TestDate>
              <Status />
              <Passed>1</Passed>
              <Errors>0</Errors>
              <Failures>0</Failures>
              <Inconclusive>0</Inconclusive>
              <NotRunnable>0</NotRunnable>
              <Skipped>0</Skipped>
              <Ignored>0</Ignored>
              <Time />
              <Message>Test successful

Execution time: 0.17ms</Message>
            </UnitTestResult>
            <UnitTestResult>
              <TestDate>2015-06-28T17:46:05</TestDate>
              <Status />
              <Passed>1</Passed>
              <Errors>0</Errors>
              <Failures>0</Failures>
              <Inconclusive>0</Inconclusive>
              <NotRunnable>0</NotRunnable>
              <Skipped>0</Skipped>
              <Ignored>0</Ignored>
              <Time />
              <Message>Test successful

Execution time: 0.17ms</Message>
            </UnitTestResult>
            <UnitTestResult>
              <TestDate>2015-06-28T17:52:25</TestDate>
              <Status />
              <Passed>1</Passed>
              <Errors>0</Errors>
              <Failures>0</Failures>
              <Inconclusive>0</Inconclusive>
              <NotRunnable>0</NotRunnable>
              <Skipped>0</Skipped>
              <Ignored>0</Ignored>
              <Time />
              <Message>Test successful

Execution time: 0.16ms</Message>
            </UnitTestResult>
            <UnitTestResult>
              <TestDate>2015-06-28T17:53:34</TestDate>
              <Status />
              <Passed>0</Passed>
              <Errors>0</Errors>
              <Failures>1</Failures>
              <Inconclusive>0</Inconclusive>
              <NotRunnable>0</NotRunnable>
              <Skipped>0</Skipped>
              <Ignored>0</Ignored>
              <Time />
              <Message>One or more child tests had errors</Message>
            </UnitTestResult>
            <UnitTestResult>
              <TestDate>2015-06-28T17:55:24</TestDate>
              <Status />
              <Passed>0</Passed>
              <Errors>0</Errors>
              <Failures>1</Failures>
              <Inconclusive>0</Inconclusive>
              <NotRunnable>0</NotRunnable>
              <Skipped>0</Skipped>
              <Ignored>0</Ignored>
              <Time />
              <Message>One or more child tests had errors</Message>
            </UnitTestResult>
            <UnitTestResult>
              <TestDate>2015-06-28T17:56:43</TestDate>
              <Status />
              <Passed>0</Passed>
              <Errors>0</Errors>
              <Failures>1</Failures>
              <Inconclusive>0</Inconclusive>
              <NotRunnable>0</NotRunnable>
              <Skipped>0</Skipped>
              <Ignored>0</Ignored>
              <Time />
              <Message>One or more child tests had errors</Message>
            </UnitTestResult>
            <UnitTestResult>
              <TestDate>2015-06-28T17:57:08</TestDate>
              <Status />
              <Passed>0</Passed>
              <Errors>0</Errors>
              <Failures>1</Failures>
              <Inconclusive>0</Inconclusive>
              <NotRunnable>0</NotRunnable>
              <Skipped>0</Skipped>
              <Ignored>0</Ignored>
              <Time />
              <Message>One or more child tests had errors</Message>
            </UnitTestResult>
            <UnitTestResult>
              <TestDate>2015-06-28T17:57:56</TestDate>
              <Status />
              <Passed>0</Passed>
              <Errors>0</Errors>
              <Failures>1</Failures>
              <Inconclusive>0</Inconclusive>
              <NotRunnable>0</NotRunnable>
              <Skipped>0</Skipped>
              <Ignored>0</Ignored>
              <Time />
              <Message>One or more child tests had errors</Message>
            </UnitTestResult>
            <UnitTestResult>
              <TestDate>2015-06-28T17:59:04</TestDate>
              <Status />
              <Passed>1</Passed>
              <Errors>0</Errors>
              <Failures>0</Failures>
              <Inconclusive>0</Inconclusive>
              <NotRunnable>0</NotRunnable>
              <Skipped>0</Skipped>
              <Ignored>0</Ignored>
              <Time />
              <Message>Test successful

Execution time: 0.60ms</Message>
            </UnitTestResult>
            <UnitTestResult>
              <TestDate>2015-06-28T18:00:12</TestDate>
              <Status />
              <Passed>1</Passed>
              <Errors>0</Errors>
              <Failures>0</Failures>
              <Inconclusive>0</Inconclusive>
              <NotRunnable>0</NotRunnable>
              <Skipped>0</Skipped>
              <Ignored>0</Ignored>
              <Time />
              <Message>Test successful

Execution time: 0.86ms</Message>
            </UnitTestResult>
            <UnitTestResult>
              <TestDate>2015-06-28T18:02:37</TestDate>
              <Status />
              <Passed>1</Passed>
              <Errors>0</Errors>
              <Failures>0</Failures>
              <Inconclusive>0</Inconclusive>
              <NotRunnable>0</NotRunnable>
              <Skipped>0</Skipped>
              <Ignored>0</Ignored>
              <Time />
              <Message>Test successful

Execution time: 0.90ms</Message>
            </UnitTestResult>
            <UnitTestResult>
              <TestDate>2015-06-28T18:03:28</TestDate>
              <Status />
              <Passed>1</Passed>
              <Errors>0</Errors>
              <Failures>0</Failures>
              <Inconclusive>0</Inconclusive>
              <NotRunnable>0</NotRunnable>
              <Skipped>0</Skipped>
              <Ignored>0</Ignored>
              <Time />
              <Message>Test successful

Execution time: 0.94ms</Message>
            </UnitTestResult>
            <UnitTestResult>
              <TestDate>2015-06-28T18:03:58</TestDate>
              <Status />
              <Passed>1</Passed>
              <Errors>0</Errors>
              <Failures>0</Failures>
              <Inconclusive>0</Inconclusive>
              <NotRunnable>0</NotRunnable>
              <Skipped>0</Skipped>
              <Ignored>0</Ignored>
              <Time />
              <Message>Test successful

Execution time: 0.84ms</Message>
            </UnitTestResult>
            <UnitTestResult>
              <TestDate>2015-06-28T18:04:18</TestDate>
              <Status />
              <Passed>0</Passed>
              <Errors>0</Errors>
              <Failures>1</Failures>
              <Inconclusive>0</Inconclusive>
              <NotRunnable>0</NotRunnable>
              <Skipped>0</Skipped>
              <Ignored>0</Ignored>
              <Time />
              <Message>One or more child tests had errors</Message>
            </UnitTestResult>
            <UnitTestResult>
              <TestDate>2015-06-28T18:04:56</TestDate>
              <Status />
              <Passed>0</Passed>
              <Errors>0</Errors>
              <Failures>1</Failures>
              <Inconclusive>0</Inconclusive>
              <NotRunnable>0</NotRunnable>
              <Skipped>0</Skipped>
              <Ignored>0</Ignored>
              <Time />
              <Message>One or more child tests had errors</Message>
            </UnitTestResult>
            <UnitTestResult>
              <TestDate>2015-06-28T18:05:12</TestDate>
              <Status />
              <Passed>0</Passed>
              <Errors>0</Errors>
              <Failures>1</Failures>
              <Inconclusive>0</Inconclusive>
              <NotRunnable>0</NotRunnable>
              <Skipped>0</Skipped>
              <Ignored>0</Ignored>
              <Time />
              <Message>One or more child tests had errors</Message>
            </UnitTestResult>
            <UnitTestResult>
              <TestDate>2015-06-28T18:05:46</TestDate>
              <Status />
              <Passed>0</Passed>
              <Errors>0</Errors>
              <Failures>1</Failures>
              <Inconclusive>0</Inconclusive>
              <NotRunnable>0</NotRunnable>
              <Skipped>0</Skipped>
              <Ignored>0</Ignored>
              <Time />
              <Message>One or more child tests had errors</Message>
            </UnitTestResult>
            <UnitTestResult>
              <TestDate>2015-06-28T18:06:04</TestDate>
              <Status />
              <Passed>0</Passed>
              <Errors>0</Errors>
              <Failures>1</Failures>
              <Inconclusive>0</Inconclusive>
              <NotRunnable>0</NotRunnable>
              <Skipped>0</Skipped>
              <Ignored>0</Ignored>
              <Time />
              <Message>One or more child tests had errors</Message>
            </UnitTestResult>
            <UnitTestResult>
              <TestDate>2015-06-28T18:06:07</TestDate>
              <Status />
              <Passed>0</Passed>
              <Errors>0</Errors>
              <Failures>1</Failures>
              <Inconclusive>0</Inconclusive>
              <NotRunnable>0</NotRunnable>
              <Skipped>0</Skipped>
              <Ignored>0</Ignored>
              <Time />
              <Message>One or more child tests had errors</Message>
            </UnitTestResult>
            <UnitTestResult>
              <TestDate>2015-06-28T18:06:49</TestDate>
              <Status />
              <Passed>0</Passed>
              <Errors>0</Errors>
              <Failures>1</Failures>
              <Inconclusive>0</Inconclusive>
              <NotRunnable>0</NotRunnable>
              <Skipped>0</Skipped>
              <Ignored>0</Ignored>
              <Time />
              <Message>One or more child tests had errors</Message>
            </UnitTestResult>
          </Results>
          <Tests>
            <TestRecord Name="queryTest">
              <Results>
                <UnitTestResult>
                  <TestDate>2015-06-28T17:37:51</TestDate>
                  <Status />
                  <Passed>1</Passed>
                  <Errors>0</Errors>
                  <Failures>0</Failures>
                  <Inconclusive>0</Inconclusive>
                  <NotRunnable>0</NotRunnable>
                  <Skipped>0</Skipped>
                  <Ignored>0</Ignored>
                  <Time />
                  <Message>Test successful

Execution time: 0.02ms</Message>
                  <ConsoleOutput />
                  <ConsoleError />
                </UnitTestResult>
                <UnitTestResult>
                  <TestDate>2015-06-28T17:44:48</TestDate>
                  <Status />
                  <Passed>1</Passed>
                  <Errors>0</Errors>
                  <Failures>0</Failures>
                  <Inconclusive>0</Inconclusive>
                  <NotRunnable>0</NotRunnable>
                  <Skipped>0</Skipped>
                  <Ignored>0</Ignored>
                  <Time />
                  <Message>Test successful

Execution time: 0.03ms</Message>
                  <ConsoleOutput />
                  <ConsoleError />
                </UnitTestResult>
                <UnitTestResult>
                  <TestDate>2015-06-28T17:44:56</TestDate>
                  <Status />
                  <Passed>1</Passed>
                  <Errors>0</Errors>
                  <Failures>0</Failures>
                  <Inconclusive>0</Inconclusive>
                  <NotRunnable>0</NotRunnable>
                  <Skipped>0</Skipped>
                  <Ignored>0</Ignored>
                  <Time />
                  <Message>Test successful

Execution time: 0.03ms</Message>
                  <ConsoleOutput />
                  <ConsoleError />
                </UnitTestResult>
                <UnitTestResult>
                  <TestDate>2015-06-28T17:45:17</TestDate>
                  <Status />
                  <Passed>1</Passed>
                  <Errors>0</Errors>
                  <Failures>0</Failures>
                  <Inconclusive>0</Inconclusive>
                  <NotRunnable>0</NotRunnable>
                  <Skipped>0</Skipped>
                  <Ignored>0</Ignored>
                  <Time />
                  <Message>Test successful

Execution time: 0.03ms</Message>
                  <ConsoleOutput />
                  <ConsoleError />
                </UnitTestResult>
                <UnitTestResult>
                  <TestDate>2015-06-28T17:45:42</TestDate>
                  <Status />
                  <Passed>1</Passed>
                  <Errors>0</Errors>
                  <Failures>0</Failures>
                  <Inconclusive>0</Inconclusive>
                  <NotRunnable>0</NotRunnable>
                  <Skipped>0</Skipped>
                  <Ignored>0</Ignored>
                  <Time />
                  <Message>Test successful

Execution time: 0.03ms</Message>
                  <ConsoleOutput />
                  <ConsoleError />
                </UnitTestResult>
                <UnitTestResult>
                  <TestDate>2015-06-28T17:46:05</TestDate>
                  <Status />
                  <Passed>1</Passed>
                  <Errors>0</Errors>
                  <Failures>0</Failures>
                  <Inconclusive>0</Inconclusive>
                  <NotRunnable>0</NotRunnable>
                  <Skipped>0</Skipped>
                  <Ignored>0</Ignored>
                  <Time />
                  <Message>Test successful

Execution time: 0.03ms</Message>
                  <ConsoleOutput />
                  <ConsoleError />
                </UnitTestResult>
                <UnitTestResult>
                  <TestDate>2015-06-28T17:52:25</TestDate>
                  <Status />
                  <Passed>1</Passed>
                  <Errors>0</Errors>
                  <Failures>0</Failures>
                  <Inconclusive>0</Inconclusive>
                  <NotRunnable>0</NotRunnable>
                  <Skipped>0</Skipped>
                  <Ignored>0</Ignored>
                  <Time />
                  <Message>Test successful

Execution time: 0.03ms</Message>
                  <ConsoleOutput />
                  <ConsoleError />
                </UnitTestResult>
                <UnitTestResult>
                  <TestDate>2015-06-28T17:53:34</TestDate>
                  <Status />
                  <Passed>0</Passed>
                  <Errors>0</Errors>
                  <Failures>1</Failures>
                  <Inconclusive>0</Inconclusive>
                  <NotRunnable>0</NotRunnable>
                  <Skipped>0</Skipped>
                  <Ignored>0</Ignored>
                  <Time />
                  <Message>  Expected: True
  But was:  False
</Message>
                  <StackTrace>  at NUnit.Framework.Assert.That (System.Object actual, IResolveConstraint expression, System.String message, System.Object[] args) [0x00000] in &lt;filename unknown&gt;:0 
  at NUnit.Framework.Assert.AreEqual (System.Object expected, System.Object actual) [0x00000] in &lt;filename unknown&gt;:0 
  at netDb.netDbTest.queryTest () [0x0002d] in /home/yorch/Projects/cs/netdb/netDb/netDbTest.cs:61 
  at (wrapper managed-to-native) System.Reflection.MonoMethod:InternalInvoke (System.Reflection.MonoMethod,object,object[],System.Exception&amp;)
  at System.Reflection.MonoMethod.Invoke (System.Object obj, BindingFlags invokeAttr, System.Reflection.Binder binder, System.Object[] parameters, System.Globalization.CultureInfo culture) [0x00000] in &lt;filename unknown&gt;:0 </StackTrace>
                  <ConsoleOutput />
                  <ConsoleError />
                </UnitTestResult>
                <UnitTestResult>
                  <TestDate>2015-06-28T17:55:24</TestDate>
                  <Status />
                  <Passed>0</Passed>
                  <Errors>0</Errors>
                  <Failures>1</Failures>
                  <Inconclusive>0</Inconclusive>
                  <NotRunnable>0</NotRunnable>
                  <Skipped>0</Skipped>
                  <Ignored>0</Ignored>
                  <Time />
                  <Message>  Expected: True
  But was:  False
</Message>
                  <StackTrace>  at NUnit.Framework.Assert.That (System.Object actual, IResolveConstraint expression, System.String message, System.Object[] args) [0x00000] in &lt;filename unknown&gt;:0 
  at NUnit.Framework.Assert.AreEqual (System.Object expected, System.Object actual) [0x00000] in &lt;filename unknown&gt;:0 
  at netDb.netDbTest.queryTest () [0x0002d] in /home/yorch/Projects/cs/netdb/netDb/netDbTest.cs:61 
  at (wrapper managed-to-native) System.Reflection.MonoMethod:InternalInvoke (System.Reflection.MonoMethod,object,object[],System.Exception&amp;)
  at System.Reflection.MonoMethod.Invoke (System.Object obj, BindingFlags invokeAttr, System.Reflection.Binder binder, System.Object[] parameters, System.Globalization.CultureInfo culture) [0x00000] in &lt;filename unknown&gt;:0 </StackTrace>
                  <ConsoleOutput />
                  <ConsoleError />
                </UnitTestResult>
                <UnitTestResult>
                  <TestDate>2015-06-28T17:56:43</TestDate>
                  <Status />
                  <Passed>0</Passed>
                  <Errors>0</Errors>
                  <Failures>1</Failures>
                  <Inconclusive>0</Inconclusive>
                  <NotRunnable>0</NotRunnable>
                  <Skipped>0</Skipped>
                  <Ignored>0</Ignored>
                  <Time />
                  <Message>  Expected: True
  But was:  False
</Message>
                  <StackTrace>  at NUnit.Framework.Assert.That (System.Object actual, IResolveConstraint expression, System.String message, System.Object[] args) [0x00000] in &lt;filename unknown&gt;:0 
  at NUnit.Framework.Assert.AreEqual (System.Object expected, System.Object actual) [0x00000] in &lt;filename unknown&gt;:0 
  at netDb.netDbTest.queryTest () [0x0002d] in /home/yorch/Projects/cs/netdb/netDb/netDbTest.cs:61 
  at (wrapper managed-to-native) System.Reflection.MonoMethod:InternalInvoke (System.Reflection.MonoMethod,object,object[],System.Exception&amp;)
  at System.Reflection.MonoMethod.Invoke (System.Object obj, BindingFlags invokeAttr, System.Reflection.Binder binder, System.Object[] parameters, System.Globalization.CultureInfo culture) [0x00000] in &lt;filename unknown&gt;:0 </StackTrace>
                  <ConsoleOutput />
                  <ConsoleError />
                </UnitTestResult>
                <UnitTestResult>
                  <TestDate>2015-06-28T17:57:08</TestDate>
                  <Status />
                  <Passed>0</Passed>
                  <Errors>0</Errors>
                  <Failures>1</Failures>
                  <Inconclusive>0</Inconclusive>
                  <NotRunnable>0</NotRunnable>
                  <Skipped>0</Skipped>
                  <Ignored>0</Ignored>
                  <Time />
                  <Message>  Expected: True
  But was:  False
</Message>
                  <StackTrace>  at NUnit.Framework.Assert.That (System.Object actual, IResolveConstraint expression, System.String message, System.Object[] args) [0x00000] in &lt;filename unknown&gt;:0 
  at NUnit.Framework.Assert.AreEqual (System.Object expected, System.Object actual) [0x00000] in &lt;filename unknown&gt;:0 
  at netDb.netDbTest.queryTest () [0x0002d] in /home/yorch/Projects/cs/netdb/netDb/netDbTest.cs:61 
  at (wrapper managed-to-native) System.Reflection.MonoMethod:InternalInvoke (System.Reflection.MonoMethod,object,object[],System.Exception&amp;)
  at System.Reflection.MonoMethod.Invoke (System.Object obj, BindingFlags invokeAttr, System.Reflection.Binder binder, System.Object[] parameters, System.Globalization.CultureInfo culture) [0x00000] in &lt;filename unknown&gt;:0 </StackTrace>
                  <ConsoleOutput />
                  <ConsoleError />
                </UnitTestResult>
                <UnitTestResult>
                  <TestDate>2015-06-28T17:57:56</TestDate>
                  <Status />
                  <Passed>0</Passed>
                  <Errors>0</Errors>
                  <Failures>1</Failures>
                  <Inconclusive>0</Inconclusive>
                  <NotRunnable>0</NotRunnable>
                  <Skipped>0</Skipped>
                  <Ignored>0</Ignored>
                  <Time />
                  <Message>  Expected: True
  But was:  False
</Message>
                  <StackTrace>  at NUnit.Framework.Assert.That (System.Object actual, IResolveConstraint expression, System.String message, System.Object[] args) [0x00000] in &lt;filename unknown&gt;:0 
  at NUnit.Framework.Assert.AreEqual (System.Object expected, System.Object actual) [0x00000] in &lt;filename unknown&gt;:0 
  at netDb.netDbTest.queryTest () [0x0002d] in /home/yorch/Projects/cs/netdb/netDb/netDbTest.cs:61 
  at (wrapper managed-to-native) System.Reflection.MonoMethod:InternalInvoke (System.Reflection.MonoMethod,object,object[],System.Exception&amp;)
  at System.Reflection.MonoMethod.Invoke (System.Object obj, BindingFlags invokeAttr, System.Reflection.Binder binder, System.Object[] parameters, System.Globalization.CultureInfo culture) [0x00000] in &lt;filename unknown&gt;:0 </StackTrace>
                  <ConsoleOutput />
                  <ConsoleError />
                </UnitTestResult>
                <UnitTestResult>
                  <TestDate>2015-06-28T17:59:04</TestDate>
                  <Status />
                  <Passed>1</Passed>
                  <Errors>0</Errors>
                  <Failures>0</Failures>
                  <Inconclusive>0</Inconclusive>
                  <NotRunnable>0</NotRunnable>
                  <Skipped>0</Skipped>
                  <Ignored>0</Ignored>
                  <Time />
                  <Message>Test successful

Execution time: 0.02ms</Message>
                  <ConsoleOutput />
                  <ConsoleError />
                </UnitTestResult>
                <UnitTestResult>
                  <TestDate>2015-06-28T18:00:12</TestDate>
                  <Status />
                  <Passed>1</Passed>
                  <Errors>0</Errors>
                  <Failures>0</Failures>
                  <Inconclusive>0</Inconclusive>
                  <NotRunnable>0</NotRunnable>
                  <Skipped>0</Skipped>
                  <Ignored>0</Ignored>
                  <Time />
                  <Message>Test successful

Execution time: 0.31ms</Message>
                  <ConsoleOutput />
                  <ConsoleError />
                </UnitTestResult>
                <UnitTestResult>
                  <TestDate>2015-06-28T18:02:37</TestDate>
                  <Status />
                  <Passed>1</Passed>
                  <Errors>0</Errors>
                  <Failures>0</Failures>
                  <Inconclusive>0</Inconclusive>
                  <NotRunnable>0</NotRunnable>
                  <Skipped>0</Skipped>
                  <Ignored>0</Ignored>
                  <Time />
                  <Message>Test successful

Execution time: 0.28ms</Message>
                  <ConsoleOutput />
                  <ConsoleError />
                </UnitTestResult>
                <UnitTestResult>
                  <TestDate>2015-06-28T18:03:28</TestDate>
                  <Status />
                  <Passed>1</Passed>
                  <Errors>0</Errors>
                  <Failures>0</Failures>
                  <Inconclusive>0</Inconclusive>
                  <NotRunnable>0</NotRunnable>
                  <Skipped>0</Skipped>
                  <Ignored>0</Ignored>
                  <Time />
                  <Message>Test successful

Execution time: 0.28ms</Message>
                  <ConsoleOutput />
                  <ConsoleError />
                </UnitTestResult>
                <UnitTestResult>
                  <TestDate>2015-06-28T18:03:58</TestDate>
                  <Status />
                  <Passed>1</Passed>
                  <Errors>0</Errors>
                  <Failures>0</Failures>
                  <Inconclusive>0</Inconclusive>
                  <NotRunnable>0</NotRunnable>
                  <Skipped>0</Skipped>
                  <Ignored>0</Ignored>
                  <Time />
                  <Message>Test successful

Execution time: 0.28ms</Message>
                  <ConsoleOutput />
                  <ConsoleError />
                </UnitTestResult>
                <UnitTestResult>
                  <TestDate>2015-06-28T18:04:18</TestDate>
                  <Status />
                  <Passed>0</Passed>
                  <Errors>0</Errors>
                  <Failures>1</Failures>
                  <Inconclusive>0</Inconclusive>
                  <NotRunnable>0</NotRunnable>
                  <Skipped>0</Skipped>
                  <Ignored>0</Ignored>
                  <Time />
                  <Message>  Expected: True
  But was:  False
</Message>
                  <StackTrace>  at NUnit.Framework.Assert.That (System.Object actual, IResolveConstraint expression, System.String message, System.Object[] args) [0x00000] in &lt;filename unknown&gt;:0 
  at NUnit.Framework.Assert.AreEqual (System.Object expected, System.Object actual) [0x00000] in &lt;filename unknown&gt;:0 
  at netDb.netDbTest.queryTest () [0x00084] in /home/yorch/Projects/cs/netdb/netDb/netDbTest.cs:70 
  at (wrapper managed-to-native) System.Reflection.MonoMethod:InternalInvoke (System.Reflection.MonoMethod,object,object[],System.Exception&amp;)
  at System.Reflection.MonoMethod.Invoke (System.Object obj, BindingFlags invokeAttr, System.Reflection.Binder binder, System.Object[] parameters, System.Globalization.CultureInfo culture) [0x00000] in &lt;filename unknown&gt;:0 </StackTrace>
                  <ConsoleOutput />
                  <ConsoleError />
                </UnitTestResult>
                <UnitTestResult>
                  <TestDate>2015-06-28T18:04:56</TestDate>
                  <Status />
                  <Passed>0</Passed>
                  <Errors>0</Errors>
                  <Failures>1</Failures>
                  <Inconclusive>0</Inconclusive>
                  <NotRunnable>0</NotRunnable>
                  <Skipped>0</Skipped>
                  <Ignored>0</Ignored>
                  <Time />
                  <Message>  Expected: True
  But was:  False
</Message>
                  <StackTrace>  at NUnit.Framework.Assert.That (System.Object actual, IResolveConstraint expression, System.String message, System.Object[] args) [0x00000] in &lt;filename unknown&gt;:0 
  at NUnit.Framework.Assert.AreEqual (System.Object expected, System.Object actual) [0x00000] in &lt;filename unknown&gt;:0 
  at netDb.netDbTest.queryTest () [0x00084] in /home/yorch/Projects/cs/netdb/netDb/netDbTest.cs:70 
  at (wrapper managed-to-native) System.Reflection.MonoMethod:InternalInvoke (System.Reflection.MonoMethod,object,object[],System.Exception&amp;)
  at System.Reflection.MonoMethod.Invoke (System.Object obj, BindingFlags invokeAttr, System.Reflection.Binder binder, System.Object[] parameters, System.Globalization.CultureInfo culture) [0x00000] in &lt;filename unknown&gt;:0 </StackTrace>
                  <ConsoleOutput />
                  <ConsoleError />
                </UnitTestResult>
                <UnitTestResult>
                  <TestDate>2015-06-28T18:05:12</TestDate>
                  <Status />
                  <Passed>0</Passed>
                  <Errors>0</Errors>
                  <Failures>1</Failures>
                  <Inconclusive>0</Inconclusive>
                  <NotRunnable>0</NotRunnable>
                  <Skipped>0</Skipped>
                  <Ignored>0</Ignored>
                  <Time />
                  <Message>  Expected: True
  But was:  False
</Message>
                  <StackTrace>  at NUnit.Framework.Assert.That (System.Object actual, IResolveConstraint expression, System.String message, System.Object[] args) [0x00000] in &lt;filename unknown&gt;:0 
  at NUnit.Framework.Assert.AreEqual (System.Object expected, System.Object actual) [0x00000] in &lt;filename unknown&gt;:0 
  at netDb.netDbTest.queryTest () [0x00084] in /home/yorch/Projects/cs/netdb/netDb/netDbTest.cs:70 
  at (wrapper managed-to-native) System.Reflection.MonoMethod:InternalInvoke (System.Reflection.MonoMethod,object,object[],System.Exception&amp;)
  at System.Reflection.MonoMethod.Invoke (System.Object obj, BindingFlags invokeAttr, System.Reflection.Binder binder, System.Object[] parameters, System.Globalization.CultureInfo culture) [0x00000] in &lt;filename unknown&gt;:0 </StackTrace>
                  <ConsoleOutput />
                  <ConsoleError />
                </UnitTestResult>
                <UnitTestResult>
                  <TestDate>2015-06-28T18:05:46</TestDate>
                  <Status />
                  <Passed>0</Passed>
                  <Errors>0</Errors>
                  <Failures>1</Failures>
                  <Inconclusive>0</Inconclusive>
                  <NotRunnable>0</NotRunnable>
                  <Skipped>0</Skipped>
                  <Ignored>0</Ignored>
                  <Time />
                  <Message>  Expected: True
  But was:  False
</Message>
                  <StackTrace>  at NUnit.Framework.Assert.That (System.Object actual, IResolveConstraint expression, System.String message, System.Object[] args) [0x00000] in &lt;filename unknown&gt;:0 
  at NUnit.Framework.Assert.AreEqual (System.Object expected, System.Object actual) [0x00000] in &lt;filename unknown&gt;:0 
  at netDb.netDbTest.queryTest () [0x00084] in /home/yorch/Projects/cs/netdb/netDb/netDbTest.cs:70 
  at (wrapper managed-to-native) System.Reflection.MonoMethod:InternalInvoke (System.Reflection.MonoMethod,object,object[],System.Exception&amp;)
  at System.Reflection.MonoMethod.Invoke (System.Object obj, BindingFlags invokeAttr, System.Reflection.Binder binder, System.Object[] parameters, System.Globalization.CultureInfo culture) [0x00000] in &lt;filename unknown&gt;:0 </StackTrace>
                  <ConsoleOutput />
                  <ConsoleError />
                </UnitTestResult>
                <UnitTestResult>
                  <TestDate>2015-06-28T18:06:04</TestDate>
                  <Status />
                  <Passed>0</Passed>
                  <Errors>0</Errors>
                  <Failures>1</Failures>
                  <Inconclusive>0</Inconclusive>
                  <NotRunnable>0</NotRunnable>
                  <Skipped>0</Skipped>
                  <Ignored>0</Ignored>
                  <Time />
                  <Message>  Expected: True
  But was:  False
</Message>
                  <StackTrace>  at NUnit.Framework.Assert.That (System.Object actual, IResolveConstraint expression, System.String message, System.Object[] args) [0x00000] in &lt;filename unknown&gt;:0 
  at NUnit.Framework.Assert.AreEqual (System.Object expected, System.Object actual) [0x00000] in &lt;filename unknown&gt;:0 
  at netDb.netDbTest.queryTest () [0x00084] in /home/yorch/Projects/cs/netdb/netDb/netDbTest.cs:70 
  at (wrapper managed-to-native) System.Reflection.MonoMethod:InternalInvoke (System.Reflection.MonoMethod,object,object[],System.Exception&amp;)
  at System.Reflection.MonoMethod.Invoke (System.Object obj, BindingFlags invokeAttr, System.Reflection.Binder binder, System.Object[] parameters, System.Globalization.CultureInfo culture) [0x00000] in &lt;filename unknown&gt;:0 </StackTrace>
                  <ConsoleOutput />
                  <ConsoleError />
                </UnitTestResult>
                <UnitTestResult>
                  <TestDate>2015-06-28T18:06:07</TestDate>
                  <Status />
                  <Passed>0</Passed>
                  <Errors>0</Errors>
                  <Failures>1</Failures>
                  <Inconclusive>0</Inconclusive>
                  <NotRunnable>0</NotRunnable>
                  <Skipped>0</Skipped>
                  <Ignored>0</Ignored>
                  <Time />
                  <Message>  Expected: True
  But was:  False
</Message>
                  <StackTrace>  at NUnit.Framework.Assert.That (System.Object actual, IResolveConstraint expression, System.String message, System.Object[] args) [0x00000] in &lt;filename unknown&gt;:0 
  at NUnit.Framework.Assert.AreEqual (System.Object expected, System.Object actual) [0x00000] in &lt;filename unknown&gt;:0 
  at netDb.netDbTest.queryTest () [0x00084] in /home/yorch/Projects/cs/netdb/netDb/netDbTest.cs:70 
  at (wrapper managed-to-native) System.Reflection.MonoMethod:InternalInvoke (System.Reflection.MonoMethod,object,object[],System.Exception&amp;)
  at System.Reflection.MonoMethod.Invoke (System.Object obj, BindingFlags invokeAttr, System.Reflection.Binder binder, System.Object[] parameters, System.Globalization.CultureInfo culture) [0x00000] in &lt;filename unknown&gt;:0 </StackTrace>
                  <ConsoleOutput />
                  <ConsoleError />
                </UnitTestResult>
                <UnitTestResult>
                  <TestDate>2015-06-28T18:06:49</TestDate>
                  <Status />
                  <Passed>0</Passed>
                  <Errors>0</Errors>
                  <Failures>1</Failures>
                  <Inconclusive>0</Inconclusive>
                  <NotRunnable>0</NotRunnable>
                  <Skipped>0</Skipped>
                  <Ignored>0</Ignored>
                  <Time />
                  <Message>  Expected: True
  But was:  False
</Message>
                  <StackTrace>  at NUnit.Framework.Assert.That (System.Object actual, IResolveConstraint expression, System.String message, System.Object[] args) [0x00000] in &lt;filename unknown&gt;:0 
  at NUnit.Framework.Assert.AreEqual (System.Object expected, System.Object actual) [0x00000] in &lt;filename unknown&gt;:0 
  at netDb.netDbTest.queryTest () [0x00084] in /home/yorch/Projects/cs/netdb/netDb/netDbTest.cs:68 
  at (wrapper managed-to-native) System.Reflection.MonoMethod:InternalInvoke (System.Reflection.MonoMethod,object,object[],System.Exception&amp;)
  at System.Reflection.MonoMethod.Invoke (System.Object obj, BindingFlags invokeAttr, System.Reflection.Binder binder, System.Object[] parameters, System.Globalization.CultureInfo culture) [0x00000] in &lt;filename unknown&gt;:0 </StackTrace>
                  <ConsoleOutput />
                  <ConsoleError />
                </UnitTestResult>
              </Results>
              <Tests />
            </TestRecord>
          </Tests>
        </TestRecord>
      </Tests>
    </TestRecord>
  </Tests>
</TestRecord>