<?xml version="1.0" encoding="utf-8"?>
<TestRecord xmlns:xsi="http://www.w3.org/2001/XMLSchema-instance" xmlns:xsd="http://www.w3.org/2001/XMLSchema">
  <Results>
    <UnitTestResult>
      <TestDate>2015-06-29T19:57:17</TestDate>
      <Status />
      <Passed>0</Passed>
      <Errors>0</Errors>
      <Failures>2</Failures>
      <Inconclusive>0</Inconclusive>
      <NotRunnable>0</NotRunnable>
      <Skipped>0</Skipped>
      <Ignored>0</Ignored>
      <Time />
    </UnitTestResult>
    <UnitTestResult>
      <TestDate>2015-06-29T19:57:55</TestDate>
      <Status />
      <Passed>0</Passed>
      <Errors>0</Errors>
      <Failures>2</Failures>
      <Inconclusive>0</Inconclusive>
      <NotRunnable>0</NotRunnable>
      <Skipped>0</Skipped>
      <Ignored>0</Ignored>
      <Time />
    </UnitTestResult>
    <UnitTestResult>
      <TestDate>2015-06-29T19:58:50</TestDate>
      <Status />
      <Passed>0</Passed>
      <Errors>0</Errors>
      <Failures>2</Failures>
      <Inconclusive>0</Inconclusive>
      <NotRunnable>0</NotRunnable>
      <Skipped>0</Skipped>
      <Ignored>0</Ignored>
      <Time />
    </UnitTestResult>
    <UnitTestResult>
      <TestDate>2015-06-29T19:59:28</TestDate>
      <Status />
      <Passed>0</Passed>
      <Errors>2</Errors>
      <Failures>0</Failures>
      <Inconclusive>0</Inconclusive>
      <NotRunnable>0</NotRunnable>
      <Skipped>0</Skipped>
      <Ignored>0</Ignored>
      <Time />
    </UnitTestResult>
    <UnitTestResult>
      <TestDate>2015-06-29T20:00:32</TestDate>
      <Status />
      <Passed>1</Passed>
      <Errors>1</Errors>
      <Failures>0</Failures>
      <Inconclusive>0</Inconclusive>
      <NotRunnable>0</NotRunnable>
      <Skipped>0</Skipped>
      <Ignored>0</Ignored>
      <Time />
    </UnitTestResult>
    <UnitTestResult>
      <TestDate>2015-06-29T20:01:23</TestDate>
      <Status />
      <Passed>1</Passed>
      <Errors>0</Errors>
      <Failures>0</Failures>
      <Inconclusive>0</Inconclusive>
      <NotRunnable>0</NotRunnable>
      <Skipped>0</Skipped>
      <Ignored>0</Ignored>
      <Time />
    </UnitTestResult>
  </Results>
</TestRecord>